-----------Exception Details on  5/29/2018 6:02:58 AM-----------------
-------------------------------------------------------------------------------------



Log Written Date: 5/29/2018 6:02:58 AM

Error Line No : curity)

Error Message: AggregateException

Exception Type: System.AggregateException

Error Location : One or more errors occurred.

 Error Page Url: http://rhealtech.cfs4filing.com/ClientViewApi/Home/Login/

User Host IP: 


--------------------------------*End*------------------------------------------



-----------Exception Details on  5/29/2018 6:04:17 AM-----------------
-------------------------------------------------------------------------------------



Log Written Date: 5/29/2018 6:04:17 AM

Error Line No : curity)

Error Message: AggregateException

Exception Type: System.AggregateException

Error Location : One or more errors occurred.

 Error Page Url: http://rhealtech.cfs4filing.com/ClientViewApi/Home/Login/

User Host IP: 


--------------------------------*End*------------------------------------------



-----------Exception Details on  5/29/2018 6:04:22 AM-----------------
-------------------------------------------------------------------------------------



Log Written Date: 5/29/2018 6:04:22 AM

Error Line No : curity)

Error Message: AggregateException

Exception Type: System.AggregateException

Error Location : One or more errors occurred.

 Error Page Url: http://rhealtech.cfs4filing.com/ClientViewApi/Home/Login/

User Host IP: 


--------------------------------*End*------------------------------------------



-----------Exception Details on  5/29/2018 6:04:23 AM-----------------
-------------------------------------------------------------------------------------



Log Written Date: 5/29/2018 6:04:23 AM

Error Line No : curity)

Error Message: AggregateException

Exception Type: System.AggregateException

Error Location : One or more errors occurred.

 Error Page Url: http://rhealtech.cfs4filing.com/ClientViewApi/Home/Login/

User Host IP: 


--------------------------------*End*------------------------------------------



-----------Exception Details on  5/29/2018 6:04:23 AM-----------------
-------------------------------------------------------------------------------------



Log Written Date: 5/29/2018 6:04:23 AM

Error Line No : curity)

Error Message: AggregateException

Exception Type: System.AggregateException

Error Location : One or more errors occurred.

 Error Page Url: http://rhealtech.cfs4filing.com/ClientViewApi/Home/Login/

User Host IP: 


--------------------------------*End*------------------------------------------



-----------Exception Details on  5/29/2018 6:04:23 AM-----------------
-------------------------------------------------------------------------------------



Log Written Date: 5/29/2018 6:04:23 AM

Error Line No : curity)

Error Message: AggregateException

Exception Type: System.AggregateException

Error Location : One or more errors occurred.

 Error Page Url: http://rhealtech.cfs4filing.com/ClientViewApi/Home/Login/

User Host IP: 


--------------------------------*End*------------------------------------------



-----------Exception Details on  5/29/2018 6:08:12 AM-----------------
-------------------------------------------------------------------------------------



Log Written Date: 5/29/2018 6:08:12 AM

Error Line No : curity)

Error Message: AggregateException

Exception Type: System.AggregateException

Error Location : One or more errors occurred.

 Error Page Url: http://rhealtech.cfs4filing.com/ClientViewApi/Home/Login/

User Host IP: 


--------------------------------*End*------------------------------------------



-----------Exception Details on  5/29/2018 6:08:27 AM-----------------
-------------------------------------------------------------------------------------



Log Written Date: 5/29/2018 6:08:27 AM

Error Line No : curity)

Error Message: AggregateException

Exception Type: System.AggregateException

Error Location : One or more errors occurred.

 Error Page Url: http://rhealtech.cfs4filing.com/ClientViewApi/Home/Login/

User Host IP: 


--------------------------------*End*------------------------------------------



-----------Exception Details on  5/29/2018 6:12:55 AM-----------------
-------------------------------------------------------------------------------------



Log Written Date: 5/29/2018 6:12:55 AM

Error Line No : curity)

Error Message: AggregateException

Exception Type: System.AggregateException

Error Location : One or more errors occurred.

 Error Page Url: http://rhealtech.cfs4filing.com/ClientViewApi/Home/Login/

User Host IP: 


--------------------------------*End*------------------------------------------



-----------Exception Details on  5/29/2018 6:22:08 AM-----------------
-------------------------------------------------------------------------------------



Log Written Date: 5/29/2018 6:22:08 AM

Error Line No : curity)

Error Message: AggregateException

Exception Type: System.AggregateException

Error Location : One or more errors occurred.

 Error Page Url: http://rhealtech.cfs4filing.com/ClientViewApi/Home/Login/

User Host IP: 


--------------------------------*End*------------------------------------------



-----------Exception Details on  5/29/2018 6:24:03 AM-----------------
-------------------------------------------------------------------------------------



Log Written Date: 5/29/2018 6:24:03 AM

Error Line No : curity)

Error Message: AggregateException

Exception Type: System.AggregateException

Error Location : One or more errors occurred.

 Error Page Url: http://rhealtech.cfs4filing.com/ClientViewApi/Home/Login/

User Host IP: 


--------------------------------*End*------------------------------------------



-----------Exception Details on  5/29/2018 6:58:21 AM-----------------
-------------------------------------------------------------------------------------



Log Written Date: 5/29/2018 6:58:21 AM

Error Line No : curity)

Error Message: AggregateException

Exception Type: System.AggregateException

Error Location : One or more errors occurred.

 Error Page Url: http://rhealtech.cfs4filing.com/ClientViewApi/Home/Login/

User Host IP: 


--------------------------------*End*------------------------------------------



-----------Exception Details on  5/29/2018 6:58:29 AM-----------------
-------------------------------------------------------------------------------------



Log Written Date: 5/29/2018 6:58:29 AM

Error Line No : curity)

Error Message: AggregateException

Exception Type: System.AggregateException

Error Location : One or more errors occurred.

 Error Page Url: http://rhealtech.cfs4filing.com/ClientViewApi/Home/Login/

User Host IP: 


--------------------------------*End*------------------------------------------



-----------Exception Details on  5/29/2018 7:00:31 AM-----------------
-------------------------------------------------------------------------------------



Log Written Date: 5/29/2018 7:00:31 AM

Error Line No : curity)

Error Message: AggregateException

Exception Type: System.AggregateException

Error Location : One or more errors occurred.

 Error Page Url: http://rhealtech.cfs4filing.com/ClientViewApi/Home/Login/

User Host IP: 


--------------------------------*End*------------------------------------------



-----------Exception Details on  5/29/2018 7:03:39 AM-----------------
-------------------------------------------------------------------------------------



Log Written Date: 5/29/2018 7:03:39 AM

Error Line No : curity)

Error Message: AggregateException

Exception Type: System.AggregateException

Error Location : One or more errors occurred.

 Error Page Url: http://rhealtech.cfs4filing.com/ClientViewApi/Home/Login/

User Host IP: 


--------------------------------*End*------------------------------------------



-----------Exception Details on  5/29/2018 7:05:21 AM-----------------
-------------------------------------------------------------------------------------



Log Written Date: 5/29/2018 7:05:21 AM

Error Line No : curity)

Error Message: AggregateException

Exception Type: System.AggregateException

Error Location : One or more errors occurred.

 Error Page Url: http://rhealtech.cfs4filing.com/ClientViewApi/Home/Login/

User Host IP: 


--------------------------------*End*------------------------------------------



-----------Exception Details on  5/29/2018 7:06:44 AM-----------------
-------------------------------------------------------------------------------------



Log Written Date: 5/29/2018 7:06:44 AM

Error Line No : curity)

Error Message: AggregateException

Exception Type: System.AggregateException

Error Location : One or more errors occurred.

 Error Page Url: http://rhealtech.cfs4filing.com/ClientViewApi/Home/Login/

User Host IP: 


--------------------------------*End*------------------------------------------



-----------Exception Details on  5/29/2018 7:08:45 AM-----------------
-------------------------------------------------------------------------------------



Log Written Date: 5/29/2018 7:08:45 AM

Error Line No : curity)

Error Message: AggregateException

Exception Type: System.AggregateException

Error Location : One or more errors occurred.

 Error Page Url: http://rhealtech.cfs4filing.com/ClientViewApi/Home/Login/

User Host IP: 


--------------------------------*End*------------------------------------------



-----------Exception Details on  5/29/2018 7:27:21 AM-----------------
-------------------------------------------------------------------------------------



Log Written Date: 5/29/2018 7:27:21 AM

Error Line No : curity)

Error Message: AggregateException

Exception Type: System.AggregateException

Error Location : One or more errors occurred.

 Error Page Url: http://rhealtech.cfs4filing.com/ClientViewApi/Home/Login/

User Host IP: 


--------------------------------*End*------------------------------------------



